{"name":"Obtener usuarios","id":"se-desea-obtener-la-informacion-de-usuarios-mediante-servicio-rest-y-paginacion;obtener-usuarios","testSteps":[{"number":1,"description":"1: Obtener usuarios ({pagina\u003d1, codigo\u003d201})","duration":7034,"startTime":"2024-05-03T16:14:42.995582700-05:00[America/Bogota]","exception":{"errorType":"org.opentest4j.AssertionFailedError","message":"\r\nexpected: 201\r\n but was: 200","stackTrace":[{"declaringClass":"in.reqres.stepDefinitions.ObtenerUsuarios","methodName":"podra_ver_los_datos_de_usuarios_en_la_pagina_enviada_y_el_con_el_status","fileName":"ObtenerUsuarios.java","lineNumber":46},{"declaringClass":"✽","methodName":"podra ver los datos de usuarios en la pagina enviada y el 201 con el status","fileName":"file:///C:/Andres/Automatizacion/RestProjectJenkins/src/test/java/in/reqres/features/ObtenerUsuarios.feature","lineNumber":7}]},"result":"FAILURE","precondition":false,"level":0,"lineNumber":11,"children":[{"number":2,"description":"Given El usuario consume el endpoint y la pagina 1","duration":6611,"startTime":"2024-05-03T16:14:43.210685800-05:00[America/Bogota]","result":"SUCCESS","precondition":false,"level":1,"children":[{"number":3,"description":"Andres get users","duration":6107,"startTime":"2024-05-03T16:14:43.694248-05:00[America/Bogota]","result":"SUCCESS","precondition":false,"level":2,"children":[{"number":4,"description":"Andres executes a GET on the resource users?page\u003d1","duration":6003,"startTime":"2024-05-03T16:14:43.751640-05:00[America/Bogota]","result":"SUCCESS","precondition":false,"level":3,"children":[{"number":5,"description":"GET https://reqres.in/api/users?page\u003d1","duration":1,"startTime":"2024-05-03T16:14:49.747839700-05:00[America/Bogota]","result":"SUCCESS","restQuery":{"method":"GET","path":"https://reqres.in/api/users?page\u003d1","content":"","contentType":"application/json","requestHeaders":"Accept\u003d*/*\r\n\t\t\t\tContent-Type\u003dapplication/json","requestCookies":"","responseHeaders":"Date: Fri, 03 May 2024 21:14:49 GMT\r\nContent-Type: application/json; charset\u003dutf-8\r\nTransfer-Encoding: chunked\r\nConnection: keep-alive\r\nReport-To: {\"group\":\"heroku-nel\",\"max_age\":3600,\"endpoints\":[{\"url\":\"https://nel.heroku.com/reports?ts\u003d1714711550\u0026sid\u003dc4c9725f-1ab0-44d8-820f-430df2718e11\u0026s\u003dCEM6yo%2BGkVpZJ%2B0s1Kav%2B87%2FoFIfDe3u53usPK1E0TE%3D\"}]}\r\nReporting-Endpoints: heroku-nel\u003dhttps://nel.heroku.com/reports?ts\u003d1714711550\u0026sid\u003dc4c9725f-1ab0-44d8-820f-430df2718e11\u0026s\u003dCEM6yo%2BGkVpZJ%2B0s1Kav%2B87%2FoFIfDe3u53usPK1E0TE%3D\r\nNel: {\"report_to\":\"heroku-nel\",\"max_age\":3600,\"success_fraction\":0.005,\"failure_fraction\":0.05,\"response_headers\":[\"Via\"]}\r\nX-Powered-By: Express\r\nAccess-Control-Allow-Origin: *\r\nEtag: W/\"3e4-2RLXvr5wTg9YQ6aH95CkYoFNuO8\"\r\nVia: 1.1 vegur\r\nCache-Control: max-age\u003d14400\r\nCF-Cache-Status: HIT\r\nAge: 500\r\nVary: Accept-Encoding\r\nServer: cloudflare\r\nCF-RAY: 87e3434e18576c88-MIA\r\nContent-Encoding: gzip\r","responseCookies":"\r","responseBody":"{\n    \"page\": 1,\n    \"per_page\": 6,\n    \"total\": 12,\n    \"total_pages\": 2,\n    \"data\": [\n        {\n            \"id\": 1,\n            \"email\": \"george.bluth@reqres.in\",\n            \"first_name\": \"George\",\n            \"last_name\": \"Bluth\",\n            \"avatar\": \"https://reqres.in/img/faces/1-image.jpg\"\n        },\n        {\n            \"id\": 2,\n            \"email\": \"janet.weaver@reqres.in\",\n            \"first_name\": \"Janet\",\n            \"last_name\": \"Weaver\",\n            \"avatar\": \"https://reqres.in/img/faces/2-image.jpg\"\n        },\n        {\n            \"id\": 3,\n            \"email\": \"emma.wong@reqres.in\",\n            \"first_name\": \"Emma\",\n            \"last_name\": \"Wong\",\n            \"avatar\": \"https://reqres.in/img/faces/3-image.jpg\"\n        },\n        {\n            \"id\": 4,\n            \"email\": \"eve.holt@reqres.in\",\n            \"first_name\": \"Eve\",\n            \"last_name\": \"Holt\",\n            \"avatar\": \"https://reqres.in/img/faces/4-image.jpg\"\n        },\n        {\n            \"id\": 5,\n            \"email\": \"charles.morris@reqres.in\",\n            \"first_name\": \"Charles\",\n            \"last_name\": \"Morris\",\n            \"avatar\": \"https://reqres.in/img/faces/5-image.jpg\"\n        },\n        {\n            \"id\": 6,\n            \"email\": \"tracey.ramos@reqres.in\",\n            \"first_name\": \"Tracey\",\n            \"last_name\": \"Ramos\",\n            \"avatar\": \"https://reqres.in/img/faces/6-image.jpg\"\n        }\n    ],\n    \"support\": {\n        \"url\": \"https://reqres.in/#support-heading\",\n        \"text\": \"To keep ReqRes free, contributions towards server costs are appreciated!\"\n    }\n}","statusCode":200},"precondition":false,"level":4}]}]}]},{"number":6,"description":"When se obtenga el codigo y cuerpo de la respuesta","duration":3,"startTime":"2024-05-03T16:14:49.825459600-05:00[America/Bogota]","result":"SUCCESS","precondition":false,"level":1},{"number":7,"description":"Then podra ver los datos de usuarios en la pagina enviada y el 201 con el status","duration":163,"startTime":"2024-05-03T16:14:49.831458900-05:00[America/Bogota]","exception":{"errorType":"org.opentest4j.AssertionFailedError","message":"\r\nexpected: 201\r\n but was: 200","stackTrace":[{"declaringClass":"in.reqres.stepDefinitions.ObtenerUsuarios","methodName":"podra_ver_los_datos_de_usuarios_en_la_pagina_enviada_y_el_con_el_status","fileName":"ObtenerUsuarios.java","lineNumber":46},{"declaringClass":"✽","methodName":"podra ver los datos de usuarios en la pagina enviada y el 201 con el status","fileName":"file:///C:/Andres/Automatizacion/RestProjectJenkins/src/test/java/in/reqres/features/ObtenerUsuarios.feature","lineNumber":7}]},"result":"FAILURE","precondition":false,"level":1}]}],"userStory":{"id":"se-desea-obtener-la-informacion-de-usuarios-mediante-servicio-rest-y-paginacion","storyName":"Se desea Obtener la informacion de usuarios mediante servicio rest y paginacion","displayName":"Se desea Obtener la informacion de usuarios mediante servicio rest y paginacion","path":"ObtenerUsuarios.feature","type":"feature","qualifiedTag":{"name":"Se desea Obtener la informacion de usuarios mediante servicio rest y paginacion","type":"feature","displayName":"Se desea Obtener la informacion de usuarios mediante servicio rest y paginacion"}},"featureTag":{"name":"Se desea Obtener la informacion de usuarios mediante servicio rest y paginacion","type":"feature","displayName":"Se desea Obtener la informacion de usuarios mediante servicio rest y paginacion"},"title":"Obtener usuarios","description":"","tags":[{"name":"get","type":"tag","displayName":"get"}],"allTags":[{"name":"get","type":"tag","displayName":"get"},{"name":"Se desea Obtener la informacion de usuarios mediante servicio rest y paginacion","type":"feature","displayName":"Se desea Obtener la informacion de usuarios mediante servicio rest y paginacion"}],"startTime":"2024-05-03T16:14:42.879030300-05:00[America/Bogota]","duration":7162,"testFailureCause":{"errorType":"org.opentest4j.AssertionFailedError","message":"\r\nexpected: 201\r\n but was: 200","stackTrace":[{"declaringClass":"in.reqres.stepDefinitions.ObtenerUsuarios","methodName":"podra_ver_los_datos_de_usuarios_en_la_pagina_enviada_y_el_con_el_status","fileName":"ObtenerUsuarios.java","lineNumber":46},{"declaringClass":"✽","methodName":"podra ver los datos de usuarios en la pagina enviada y el 201 con el status","fileName":"file:///C:/Andres/Automatizacion/RestProjectJenkins/src/test/java/in/reqres/features/ObtenerUsuarios.feature","lineNumber":7}]},"testFailureClassname":"org.opentest4j.AssertionFailedError","testFailureMessage":"\r\nexpected: 201\r\n but was: 200","testFailureSummary":"FAILURE;org.opentest4j.AssertionFailedError;\r\nexpected: 201\r\n but was: 200;ObtenerUsuarios.java","projectKey":"","annotatedResult":"FAILURE","isManualTestingUpToDate":false,"context":"windows","dataTable":{"headers":["pagina","codigo"],"rows":[{"values":["1","201"],"lineNumber":11,"result":"FAILURE"}],"predefinedRows":true,"scenarioOutline":"Given El usuario consume el endpoint y la pagina \u003cpagina\u003e\n\rWhen se obtenga el codigo y cuerpo de la respuesta\n\rThen podra ver los datos de usuarios en la pagina enviada y el \u003ccodigo\u003e con el status\n\r","dataSetDescriptors":[{"startRow":0,"rowCount":0,"name":"","description":""}]},"manual":false,"testSource":"Cucumber","actors":[{"name":"Andres","can":["call an API at https://reqres.in/api/"]}],"result":"FAILURE","scenarioOutline":"Given El usuario consume el endpoint y la pagina \u003cpagina\u003e\r\nWhen se obtenga el codigo y cuerpo de la respuesta\r\nThen podra ver los datos de usuarios en la pagina enviada y el \u003ccodigo\u003e con el status"}